^C:\USERS\НИКИТА\DESKTOP\VISUALSTUDIO\PROJECT1\DEBUG\MAIN.OBJ
C:\USERS\Никита\DESKTOP\VISUALSTUDIO\PROJECT1\DEBUG\PROJECT1.EXE
C:\USERS\Никита\DESKTOP\VISUALSTUDIO\PROJECT1\DEBUG\PROJECT1.ILK
C:\USERS\НИКИТА\DESKTOP\VISUALSTUDIO\PROJECT1\DEBUG\PROJECT1.PDB
